…
example_data <- tibble::tibble(person = 1:10,
                               item1 = sample(0:1, 10, replace = TRUE),
                               item2 = sample(0:1, 10, replace = TRUE),
                               item3 = sample(0:1, 10, replace = TRUE))

qmatrix <- clean_qmatrix(example_qmatrix, identifier = "item")
clean_data(example_data, identifier = "person",
           cleaned_qmatrix = qmatrix)
#> $clean_data
#> # A tibble: 30 × 3
#>    resp_id item_id score
#>    <fct>   <fct>   <int>
#>  1 1       item1       1
#>  2 1       item2       1
#>  3 1       item3       0
#>  4 2       item1       0
#>  5 2       item2       0
#>  6 2       item3       0
#>  7 3       item1       0
#>  8 3       item2       1
#>  9 3       item3       1
#> 10 4       item1       1
#> # ℹ 20 more rows
…
